epoch;F1_score;Precision;Recall;acc;loss;val_F1_score;val_Precision;val_Recall;val_acc;val_loss
0;0.05706114910542965;0.047748191356658934;0.11728340059518814;0.0012500000232830643;0.4014684808254242;0.040009474754333495;0.08846080303192139;0.025890938937664032;0.0004687500186264515;0.4396937847137451
1;0.024664251338690518;0.05426378414034844;0.01693791763857007;0.0013750000018626452;0.2612083065509796;0.003995901843882166;0.02583024970954284;0.0021654468175256623;0.0010937499813735486;0.4075541257858276
2;0.005926098264753818;0.05161743700504303;0.00318257131613791;0.002968750037252903;0.2247605925798416;0.002843301964458078;0.02600562758743763;0.0015040839032735675;0.0004687500186264515;0.4636725902557373
3;0.003572568874806166;0.056570260524749755;0.0018495115730911493;0.0043125000223517415;0.20543561935424803;nan;0.02773623466491699;0.0006946276873350144;0.00015625000232830644;0.3268388152122498
4;0.0022515963530167936;0.056416950821876526;0.0011499682150315493;0.00606249992735684;0.18623404383659362;0.0012229314364958555;0.04716503974050283;0.0006195597496116533;0.0;0.3038738131523132
5;0.0014746258826926352;0.05803489044308662;0.0007469698728527873;0.006031250059604645;0.17398715019226074;0.013342050928622484;0.18871512711048127;0.006919326214119792;0.00015625000232830644;0.339994353055954
6;nan;0.061450758278369905;0.0005327105801552534;0.00734375;0.1645575013756752;0.014073107670992614;0.22771489545702933;0.007267661346122623;0.0003125000046566129;0.3130724191665649
7;0.0010635835147695615;0.07859660357236863;0.0005354623112361879;0.0063125000894069675;0.14960136771202087;0.030813481472432614;0.2078171782195568;0.016691837832331656;0.0012500000186264515;0.33913270235061643
8;0.00168046613689512;0.14611788295209407;0.0008456526463851333;0.005999999903142452;0.14296895623207093;0.04949368666857481;0.16870062723755835;0.029151266813278197;0.002343749930150807;0.35902384519577024
9;0.0036338450107723476;0.21549651876091958;0.001835823972360231;0.005906250067055225;0.1474992448091507;0.012624596524983645;0.3413665369153023;0.006437617586925626;0.001718750037252903;0.23295562267303466
10;0.0016922270017676055;0.15609021693468095;0.0008516658644657582;0.007562499884516001;0.14651954650878907;0.031023725308477877;0.20600135065615177;0.016830004286020994;0.002656250074505806;0.334714674949646
11;0.0023876949213445186;0.2507327601313591;0.0012003979808650912;0.006062500039115548;0.14013302505016326;0.03694186192005873;0.25255924835801125;0.019987915083765982;0.002031249925494194;0.32956146597862246
12;0.0030545800179243086;0.34893287897109987;0.0015348042827099562;0.009750000163912774;0.12636605143547058;0.04418860860168934;0.23822482377290727;0.024435655400156974;0.004218750074505806;0.3189502775669098
13;0.003577413470484316;0.3859973070025444;0.001797100193798542;0.01384374976158142;0.12348622113466262;0.07019570916891098;0.24330119788646698;0.04121413994580507;0.004218750074505806;0.3255307674407959
14;0.007507857552263885;0.5262658861279488;0.0037826474104076624;0.007500000037252903;0.11810993552207946;0.09290615618228912;0.2772590219974518;0.05615429319441319;0.004218750074505806;0.2990165114402771
15;0.012872336581349373;0.6646744227409362;0.006507488135248422;0.00906250011175871;0.11974891364574432;0.128333181142807;0.15113747194409372;0.11297003477811814;0.003125;0.3901227116584778
16;0.014341787807643414;0.6582495284080505;0.007262889789417386;0.013343750014901162;0.11977445632219315;0.2044132322072983;0.28161545693874357;0.1655314013361931;0.002968749962747097;0.3606244444847107
17;0.04420080468058586;0.7879548287391662;0.02277296835556626;0.01449999988079071;0.11025376588106156;0.2051749810576439;0.275845105946064;0.16842217296361922;0.0037499999278225006;0.3488329231739044
18;0.054848931655287744;0.769527735710144;0.02851154960691929;0.011281249821186065;0.10874972343444825;0.20104918628931046;0.2380063533782959;0.17915651053190232;0.0034374998533166943;0.34024399518966675
19;0.05139015287160873;0.777816002368927;0.026640709862112998;0.014406250119209289;0.10738149583339691;0.20690128803253174;0.24434330314397812;0.18543352484703063;0.00390625;0.32818695306777956
20;0.0535570764541626;0.7510690689086914;0.027818912565708162;0.013562499806284904;0.10684479236602783;0.21567642241716384;0.24353950023651122;0.2007324993610382;0.00390625;0.3287481188774109
21;0.0470060758292675;0.7600352787971496;0.024322874546051025;0.013593750149011612;0.10592591404914856;0.22848114967346192;0.25797549188137053;0.21393542289733886;0.004218749853316694;0.32590019702911377
22;0.05268315825611353;0.7489766883850097;0.02737988568842411;0.013031250163912773;0.10677816212177277;0.23595209717750548;0.24113605469465255;0.2422271639108658;0.0032812500023283063;0.33952635526657104
23;0.06026781350374222;0.7505002832412719;0.031496040672063824;0.014781249947845935;0.10572186589241028;0.24504615366458893;0.26282288432121276;0.24367373585700988;0.0037499999278225006;0.32279386520385744
24;0.07481187984347343;0.7713714480400086;0.03942708320915699;0.015687499716877936;0.10541081309318542;0.24312709867954255;0.2391586720943451;0.26214232444763186;0.0034374998533166943;0.33563497066497805
25;0.08370051324367524;0.7740908288955688;0.04449252307415009;0.01306250000372529;0.10553703546524047;0.2464090496301651;0.23677666932344438;0.2730122089385986;0.0034374998533166943;0.33818529844284057
26;0.08756439879536629;0.7725052285194397;0.04651341922581196;0.013781250081956386;0.1046860934793949;0.26051796674728395;0.2639978647232056;0.2761050224304199;0.0029687499278225004;0.32995147705078126
27;0.08773398280143738;0.8205661845207214;0.0464218270778656;0.014906249940395355;0.10410468488931655;0.2614708125591278;0.2574986770749092;0.2851773738861084;0.0028125000768341123;0.3318348050117493
28;0.0791397973895073;0.7720151567459106;0.04207296088337898;0.013281249972060323;0.10386983454227447;0.2561332732439041;0.2353642016649246;0.3004005789756775;0.0034374998533166943;0.3418112277984619
29;nan;0.7634756374359131;0.04713483840227127;0.015062500163912773;0.10403275594115258;0.26133014261722565;0.24032952785491943;0.3085425853729248;0.0037499999278225006;0.3391788363456726
30;0.10059713304042817;0.8117832374572754;0.05404389083385468;0.014156249836087226;0.10359390258789063;0.2672578305006027;0.25272080302238464;0.30818929672241213;0.0035937500768341126;0.33031678199768066
31;0.10885804802179337;0.7669591546058655;0.05874664217233658;0.014218749850988388;0.10451900720596313;0.26183925569057465;0.22754822820425033;0.3331445276737213;0.0037499999278225006;0.3459902048110962
32;0.12226589262485504;0.7846090388298035;0.06641794174909592;0.014406250119209289;0.10367945671081542;0.26619275808334353;0.23956768661737443;0.32600943446159364;0.004687500151339919;0.3321271538734436
33;0.1249620246887207;0.7986013817787171;0.06795192033052444;0.012750000059604645;0.1031730192899704;0.27014880776405337;0.23704372346401215;0.3426753044128418;0.004375000076834112;0.3374837040901184
34;0.12594363003969192;0.7738874673843383;0.06875116224400699;0.01281250011175871;0.1022950690984726;0.27388530373573305;0.2402208238840103;0.34901108741760256;0.004218749853316694;0.3350020408630371
35;0.11740213012322784;0.7134159517288208;0.06416026805527508;0.014781249985098839;0.10293637454509735;0.27127391695976255;0.23389725387096405;0.35326364636421204;0.0046875;0.33455914855003355
36;0.13200189262628556;0.7616399800777436;0.07260405108332633;0.015125000104308128;0.10316134750843048;0.2690236568450928;0.22718705236911774;0.3604406476020813;0.004843749850988388;0.3367931544780731
37;0.13343500539660455;0.7944127821922302;0.07319910019636154;0.015062500163912773;0.1022133868932724;0.2740817487239838;0.23761543035507202;0.35631688833236697;0.005000000074505806;0.32758413553237914
38;0.13349580109119416;0.7759822726249694;0.07328253775835038;0.015406250283122062;0.10218917638063431;0.27217482030391693;0.22661768198013305;0.37370126247406005;0.005156249925494194;0.33701249957084656
39;0.1462334230542183;0.7735890889167786;0.08108015619218349;0.013562500141561032;0.10242986738681793;0.2802970170974731;0.23354062736034392;0.38675904273986816;0.004999999853316695;0.3405948460102081
40;0.1547578603029251;0.7586233353614807;0.08644179463386535;0.015374999791383744;0.10220687329769135;0.2821802318096161;0.23529742658138275;0.3904402732849121;0.004843750002328307;0.3382546901702881
41;0.16261027097702027;0.7799863195419312;0.09106472760438919;0.015249999854713678;0.10232521891593933;0.28438854217529297;0.23451236486434937;0.40020748376846316;0.005781250004656613;0.3407439053058624
42;0.1724983549118042;0.8040534090995789;0.096865813434124;0.015093749910593033;0.10172928929328919;0.282734552025795;0.22575052082538605;0.41796191930770876;0.005000000004656613;0.3492897629737854
43;0.1666696673631668;0.765585470199585;0.09366092681884766;0.015656250007450582;0.10169751644134521;0.29167091846466064;0.24317505955696106;0.4067565083503723;0.005781250004656613;0.3335314989089966
44;0.17861827552318574;0.8162600111961364;0.1007090163230896;0.016749999951571226;0.10241065233945847;0.2853410243988037;0.2298932045698166;0.4173450946807861;0.0053124999278225;0.33929513692855834
45;0.16392077818512918;0.8001670026779175;0.0924651426076889;0.014937500078231096;0.10199389815330505;0.2830032378435135;0.22387949824333192;0.4250146150588989;0.005156250076834112;0.3423276662826538
46;0.1751699209213257;0.7928324198722839;0.09890480101108551;0.015687500163912772;0.10156599313020706;0.286977618932724;0.2311243951320648;0.42039486169815066;0.004999999853316695;0.33491971492767336
47;0.16975770950317381;0.7854912972450256;0.09553620636463166;0.018093750104308127;0.10128808736801148;0.28629800379276277;0.22778483629226684;0.4279134154319763;0.0053124999278225;0.3377271294593811
48;0.18656978130340576;0.7904296469688415;0.10609582364559174;0.01481250012293458;0.10042681694030761;0.2827013969421387;0.2206051081418991;0.4363089084625244;0.004999999853316695;0.34141781330108645
49;0.18586761146783828;0.8054084014892579;0.10621101438999175;0.01818750023841858;0.1008707857131958;0.28752670288085935;0.2244274854660034;0.44454885721206666;0.004843750002328307;0.3415886998176575
50;0.20092707119882106;0.7471625399589539;0.1178591151535511;0.015156249925494194;0.10130619287490844;0.27974833548069;0.2135820508003235;0.4487563014030457;0.005156250076834112;0.3425245761871338
51;0.20657546699047089;0.7948643517494202;0.11913125455379486;0.017562500163912774;0.10148307263851165;0.2866445302963257;0.223634272813797;0.4449778199195862;0.004999999853316695;0.3355384826660156
52;0.21152219653129578;0.787114942073822;0.12414609551429749;0.01418749988079071;0.10007880449295044;0.282707542181015;0.21356232166290284;0.46397924423217773;0.004687500151339919;0.34682230949401854
53;0.2253273370862007;0.7547793459892272;0.13349788764491677;0.014593750014901161;0.10028317272663116;0.2916443347930908;0.22202358543872833;0.47491065263748167;0.004999999853316695;0.3494295120239258
54;0.24795109808444976;0.7867963886260987;0.14784307032823563;0.014625000208616257;0.09963686466217041;0.29193520843982695;0.221576127409935;0.4781879663467407;0.0045312499278225005;0.348918205499649
55;nan;0.775752248764038;0.14984180212020873;0.016406249925494193;0.1001878759264946;0.28985167741775514;0.21976574659347534;0.4753879070281982;0.004999999853316695;0.34495570063591
56;0.24049432218074798;0.7827218055725098;0.14298252373933792;0.0152812497317791;0.09967156082391739;0.29081923365592954;0.2224819004535675;0.4690722107887268;0.004687500151339919;0.3383309364318848
57;0.2330915641784668;0.7910901847481727;0.13796390116214752;0.01443750001490116;0.09966109186410904;0.2866820514202118;0.21438549160957338;0.48021349906921384;0.005156250076834112;0.3448517322540283
58;0.23393650949001313;0.8057962036132813;0.13834089934825897;0.018687500059604643;0.09992001324892044;0.29320988357067107;0.22563838064670563;0.4672115921974182;0.004687500151339919;0.3339195728302002
59;0.23792322278022765;0.7714883613586426;0.14184580743312836;0.01600000008940697;0.10030380979180337;0.28527175486087797;0.2100256085395813;0.4919623494148254;0.004999999853316695;0.35118515491485597
60;0.2321619749069214;0.7824464654922485;0.13843714892864228;0.017906249966472387;0.09976344525814057;0.2963127434253693;0.2250463604927063;0.4841146349906921;0.004687500151339919;0.3419830143451691
61;0.24608431100845338;0.7646998715400696;0.1474059671163559;0.016093750149011612;0.10013495445251465;0.2883816480636597;0.20990775227546693;0.5094681859016419;0.004999999853316695;0.36009103059768677
62;0.24968840122222902;0.7486654686927795;0.1513676756620407;0.01634374998509884;0.09937284231185912;0.29602072238922117;0.22271222174167632;0.4921197772026062;0.004218749853316694;0.3429360568523407
63;0.25593307554721834;0.7820108222961426;0.15335322976112364;0.017781249731779098;0.09930014491081238;0.2822532534599304;0.20671162903308868;0.49217360019683837;0.004843750002328307;0.3444053530693054
64;0.2733890414237976;0.7658518743515015;0.16668642640113832;0.015124999955296516;0.09918943703174592;0.27731980979442594;0.201084902882576;0.49344983100891116;0.0053124999278225;0.3449777066707611
65;0.28450889497995374;0.790355293750763;0.17456884890794755;0.017499999925494194;0.09824431121349335;0.2916009932756424;0.21616386473178864;0.4989992380142212;0.004375000076834112;0.3430063843727112
66;0.26054211258888244;0.7671307826042175;0.1610698163509369;0.017406249940395354;0.09893627762794495;0.29394177794456483;0.21644679605960845;0.5092260241508484;0.004375000076834112;0.3474846124649048
67;0.2772767800092697;0.7809720742702484;0.1705712640285492;0.015812500007450582;0.0984306438267231;0.28240066170692446;0.20289432108402253;0.5124616146087646;0.004374999855645001;0.3501454293727875
68;0.27154759705066683;0.757193706035614;0.16738230526447295;0.017062499895691873;0.09858660966157913;0.28877784609794616;0.21104351580142974;0.506887149810791;0.004375000076834112;0.34301031231880186
69;0.271478311419487;0.7610818934440613;0.16729497641324997;0.017624999955296518;0.09735457986593246;0.28622370064258573;0.20788692235946654;0.5083672881126404;0.005000000167638063;0.34246526956558226
70;0.29506397239863874;0.7725068497657775;0.18518815241754055;0.016437500063329936;0.09760595232248306;0.2821929782629013;0.20189723372459412;0.5169980883598327;0.005000000004656613;0.34744793176651
71;0.29816393852233886;0.7894227743148804;0.18509237945079804;0.018125;0.09761206150054931;0.2878168672323227;0.20753251612186432;0.5190996050834655;0.005781250004656613;0.34650516510009766
72;0.31161591291427615;0.781505172252655;0.19733841955661774;0.016124999942258002;0.09846315294504165;0.2862096577882767;0.2029920220375061;0.535389757156372;0.005781250004656613;0.3569221913814545
73;0.2729541993141174;0.7345633101463318;0.17126378297805786;0.01856249965727329;0.09793442010879516;0.29838196337223055;0.21974950134754181;0.5180865526199341;0.005625000153668225;0.3406738042831421
74;0.30920331478118895;0.7860468339920044;0.19540018260478972;0.020968750179745258;0.09791104972362519;0.27846103310585024;0.19617403149604798;0.5275974988937377;0.005312500079162419;0.34991770386695864
75;0.32665628790855405;0.7434519892930984;0.21300297021865844;0.013312499821186066;0.09886490061879158;0.27899264097213744;0.19481944739818574;0.540303087234497;0.005625000153668225;0.3573426604270935
76;0.315729177845642;0.7641635302081704;0.20040624098852278;0.01946874998509884;0.0975885146856308;0.30458675026893617;0.22597382962703705;0.5226199626922607;0.005000000004656613;0.3393914043903351
77;0.3270413780212402;0.7759016990661621;0.21031543731689453;0.016843749806284905;0.09719515413045883;0.27972272336483;0.19421036243438722;0.5489441514015198;0.005156249855645001;0.3619693279266357
78;0.3301750621199608;0.7629470121860504;0.21315699741244315;0.015187499895691872;0.09742293924093247;0.2878983736038208;0.20499253273010254;0.5328311681747436;0.005156249855645001;0.3471062183380127
79;0.2953354114294052;0.7831648421287537;0.18388573437929154;0.01834374986588955;0.09713160902261735;0.2890171974897385;0.20644970536231994;0.53074152469635;0.005156250076834112;0.3449046492576599
80;0.3239635968208313;0.7829422044754029;0.20583526730537416;0.019406250193715096;0.0966128170490265;0.2841317802667618;0.19914354979991913;0.5443349361419678;0.005156249855645001;0.35607477426528933
81;0.3074062913656235;0.7731677895784378;0.19514209687709808;0.017875000312924386;0.09669185519218444;0.2931944280862808;0.21092693507671356;0.531581711769104;0.004843750002328307;0.3450667142868042
82;0.31384124159812926;0.801039342880249;0.19691327214241028;0.01840624988079071;0.09671920955181122;0.2841046303510666;0.20086340010166168;0.5334151864051819;0.005000000074505806;0.34687557220458987
83;0.34238110184669496;0.8052346634864808;0.2195351666212082;0.015250000096857548;0.09655921190977096;0.2793026387691498;0.1929239511489868;0.5539285898208618;0.004999999853316695;0.3610503911972046
84;0.32704465627670287;0.7455776622891426;0.2116201589256525;0.015999999791383744;0.09690220654010773;0.29376567602157594;0.20934485793113708;0.5443378806114196;0.004843750002328307;0.35017119646072387
85;0.3392385458946228;0.7766133570671081;0.22032440066337586;0.01959375001490116;0.09671452075242996;0.28515600860118867;0.19953378140926362;0.5490344524383545;0.004687500151339919;0.3527140259742737
86;0.34551227450370786;0.7856441187858582;0.22508417904376984;0.016500000208616257;0.09603757157921791;0.28178676068782804;0.19648924171924592;0.5463915705680847;0.004375000076834112;0.3501674771308899
87;0.3398415446281433;0.7711089539527893;0.22353901386260985;0.019343750104308128;0.09649138778448105;0.2826808303594589;0.19738085567951202;0.5460461497306823;0.004375000076834112;0.34842962622642515
88;0.339874202311039;0.7645614385604859;0.22136889949440955;0.015875000059604644;0.09627804398536682;0.2768168032169342;0.1892133355140686;0.5631301283836365;0.005156250076834112;0.360500693321228
89;0.3565005141496658;0.7631900358200073;0.2395283767580986;0.017562499940395354;0.09578702121973037;0.2855454653501511;0.1994518518447876;0.5523966312408447;0.0045312499278225005;0.35013160705566404
90;0.36082692980766295;0.8097177267074585;0.2359972858428955;0.01699999988079071;0.09540282100439072;0.28329635560512545;0.19673026502132415;0.5552409529685974;0.004687500151339919;0.3517174243927002
91;0.35995755076408387;0.8009706902503967;0.23438664466142656;0.01687499977648258;0.09572936028242111;0.28285822570323943;0.19497655630111693;0.5637291312217713;0.004843750002328307;0.35712742805480957
92;0.3253371727466583;0.7070465183258057;0.21534826278686522;0.017343749701976777;0.095400390625;0.28013596534729;0.19241565763950347;0.5631193280220032;0.005156249855645001;0.3563334882259369
93;0.3516901254653931;0.7556389045715332;0.23314928710460664;0.018624999523162843;0.09600475668907166;0.27628178596496583;0.18805423974990845;0.5685243487358094;0.005156249855645001;0.3592325091362
94;0.36019314646720885;0.7195471930503845;0.24346957862377167;0.015156250204890967;0.09666312038898468;0.2673098921775818;0.1797344297170639;0.5672641515731811;0.0046874999301508066;0.35789080858230593
95;0.36684307813644407;0.7576504611968994;0.2462247109413147;0.01765625;0.09554774582386016;0.2821455359458923;0.19678318202495576;0.5479818701744079;0.005000000004656613;0.34067489504814147
96;0.39342315554618834;0.7728854918479919;0.26541812121868136;0.01550000011920929;0.09618962466716767;0.2717145621776581;0.18316562473773956;0.5735599279403687;0.005312500079162419;0.35757520198822024
97;0.39180689096450805;0.7718357801437378;0.2675029769539833;0.01715625010430813;0.09496760934591293;0.2792799651622772;0.19074114859104158;0.5707748293876648;0.005468749930150807;0.35314640402793884
98;0.38067857146263123;0.7550239396095276;0.2590470391511917;0.018875000029802323;0.09537900090217591;0.2750826597213745;0.186447411775589;0.5730510354042053;0.005937499855645001;0.3549960613250732
99;0.3831926041841507;0.7722263550758361;0.2594261804223061;0.017468750216066836;0.09522341430187226;0.2779042750597;0.18874941170215606;0.5756685376167298;0.006093750079162419;0.3555134773254395
