epoch;F1_score;Precision;Recall;acc;loss;val_F1_score;val_Precision;val_Recall;val_acc;val_loss
0;0.029959743842482567;0.041726558431982995;0.054685729071497914;0.0020624999795109036;0.3486719250679016;nan;0.04076433181762695;5.448060692287981e-05;0.34296876192092896;0.4074162244796753
1;0.007286939118057489;0.04251455172896385;0.004189765667542815;0.021156250312924386;0.24427701592445372;nan;0.04444444477558136;6.8100758653599765e-06;0.38156250715255735;0.29200364351272584
2;0.0014251389261335135;0.04181095659732818;0.0007268774136900902;0.08312499940395356;0.22221218585968017;nan;0.11428571939468384;6.8100758653599765e-06;0.38125;0.31869240999221804
3;0.0003640890002134256;0.03857948616147042;0.00018306054698769003;0.1465625011920929;0.21070680439472197;nan;0.0;0.0;0.3817187547683716;0.3103970766067505
4;0.00015273717057425528;0.04961035996675491;7.650125364307314e-05;0.18800000071525574;0.2040294361114502;nan;0.0;0.0;0.38453125953674316;0.252629828453064
5;nan;0.03878950238227844;2.3912121687317267e-05;0.21390624821186066;0.1919594669342041;nan;0.0;0.0;0.36843749284744265;0.2671953797340393
6;nan;0.012272401452064515;3.911989188054576e-06;0.2178124976158142;0.1897229778766632;nan;0.0;0.0;0.35;0.26516340374946595
7;nan;0.04648408442735672;1.222910919750575e-05;0.2354374998807907;0.1751646614074707;nan;0.0;0.0;0.3454687476158142;0.24261951446533203
8;nan;0.04193829536437988;4.8637622967362406e-06;0.24778125166893006;0.17226211428642274;nan;0.0;0.0;0.31625000238418577;0.2718724012374878
9;nan;0.042666667699813844;3.0004126892890782e-06;0.22809374928474427;0.1616765508055687;nan;0.0;0.0;0.2107812523841858;0.297003436088562
10;nan;0.009411764740943908;1.055569082382135e-06;0.2131250011920929;0.162516028881073;nan;0.0;0.0;0.18296875357627868;0.32379831075668336
11;nan;0.013333333730697632;1.1101243580924346e-06;0.2296874988079071;0.15913736701011658;nan;0.0;0.0;0.19437500238418579;0.2763555467128754
12;nan;0.051428571939468384;2.9253541288198902e-06;0.23109374821186066;0.14474803030490876;5.431982717709616e-05;0.6400000005960464;2.7161740581505002e-05;0.1590625002980232;0.2957265377044678
13;nan;0.05200000047683716;4.345083507359959e-06;0.23171875327825547;0.14119212865829467;0.001278245056164451;0.5235302184708417;0.0006399899866664782;0.11453125476837159;0.3060193181037903
14;nan;0.49318859219551087;9.726096039230469e-05;0.18434375196695327;0.14496545672416686;nan;0.48000001907348633;2.043022686848417e-05;0.18312500417232513;0.21263779401779176
15;nan;0.3577326214313507;0.00010391469404567034;0.17143749952316284;0.16062614351511;0.0002855598460882902;0.6645392753183842;0.00014285446668509393;0.08281250223517418;0.2730412304401398
16;nan;0.06666666269302368;2.671765905688517e-06;0.20331250071525575;0.14827428877353668;0.0015758119348902254;0.495191540196538;0.0007894973707152531;0.062031247466802594;0.3044878602027893
17;nan;0.3040000009536743;1.558750052936375e-05;0.1509374988079071;0.13772223770618439;0.001047131753875874;0.5055218303576112;0.00052421867439989;0.1098437525331974;0.23984325528144837
18;0.0003627418732503429;0.7046755361557007;0.00018144616144127212;0.16506249964237213;0.12966930091381074;0.00295388619415462;0.5246919280849397;0.0014838108560070395;0.1471874952316284;0.22403894662857055
19;0.0023967327130958436;0.8039911007881164;0.0012011203030124307;0.17546875059604644;0.13309643387794495;0.009516546758823097;0.4592746626585722;0.0048266153549775485;0.10249999910593033;0.24646146297454835
20;0.005071695605292917;0.9259767389297485;0.002551095229573548;0.14715625002980232;0.12407312631607055;0.023616827139630914;0.3320212492719293;0.012362147681415081;0.07624999731779099;0.26782569885253904
21;nan;0.8575671482086181;0.007020635157823562;0.15481249928474428;0.12001969277858734;0.025442167930305005;0.3456844598520547;0.013356183748692274;0.08578125014901161;0.25107420682907106
22;0.023781988322734832;0.9372603702545166;0.012085677422583103;0.16428124904632568;0.11508890330791473;0.025853418000042438;0.34439338389784097;0.013587568793445826;0.0860937513411045;0.24943522214889527
23;0.02909196563065052;0.9108451747894287;0.014818616770207882;0.17337500005960466;0.11396250009536743;0.028501527011394502;0.3101668696384877;0.015106136398389935;0.08734375238418579;0.24910120964050292
24;nan;0.836663522720337;0.015793972387909888;0.15740625113248824;0.1129994636774063;0.03269626395776868;0.284164117090404;0.017550010699778795;0.08937500268220902;0.2504043221473694
25;0.04118455111980438;0.8980726051330566;0.021166594214737416;0.1351875016093254;0.11332304954528809;0.035223585879430176;0.2739242696203291;0.019041024195030332;0.09281250089406967;0.24832862615585327
26;0.0383862167596817;0.908948564529419;0.01969029016792774;0.1409062522649765;0.11268203020095825;0.0346666126511991;0.2900572897400707;0.018672888353466987;0.09249999970197678;0.2435309648513794
27;0.041060096397995946;0.8679583978652954;0.021170660918578506;0.1442812478542328;0.11219331383705139;0.03772904574871063;0.284182343352586;0.020496730972081423;0.0865624986588955;0.2467821419239044
28;0.048438280299305914;0.9100671690702439;0.02500095620751381;0.1443125021457672;0.11186285048723221;0.039026467502117156;0.28611314366571605;0.02125906725414097;0.08078124895691871;0.2487499475479126
29;0.05029748994857073;0.8759875869750977;0.02601678464561701;0.14056249797344209;0.1107108910381794;0.039078387152403596;0.28647802360355856;0.021292959759011864;0.08093750029802323;0.24819002151489258
30;0.05383827939629555;0.9118925571441651;0.027964770421385766;0.14787499785423278;0.1106873981654644;0.03914335370063782;0.2871547156944871;0.021327010402455927;0.08156249895691872;0.24748061299324037
31;0.04442331854254007;0.8273412489891052;0.023064813539385796;0.14084374904632568;0.11119003474712372;0.03936864631250501;0.2841744992882013;0.02147675435990095;0.08156249895691872;0.2477189540863037
32;0.05183265209197998;0.8843740797042847;0.02677959352731705;0.14484374731779098;0.11103181421756744;0.039792757295072076;0.281737850792706;0.021742190048098565;0.0814062513411045;0.24790772199630737
33;0.04852158270776272;0.9165302880108357;0.025086423587054013;0.13409374952316283;0.11062530398368836;0.04093674523755908;0.2786501543596387;0.022429928462952376;0.08078125268220901;0.2494978904724121
34;0.05802504137158394;0.8644347095489502;0.0302553903311491;0.13759375214576722;0.11082274496555328;0.04097438342869282;0.2777129696682096;0.022463822457939386;0.08078125268220901;0.2488345742225647
35;0.05196210291236639;0.8880516743659973;0.02694228580221534;0.14668749928474425;0.11071312367916107;0.04120791610330343;0.27554300921037794;0.022620296385139228;0.08156249895691872;0.2486175239086151
36;nan;0.836833791732788;0.026110776960849763;0.14609375;0.11051927238702774;0.04106374429538846;0.2756430903449655;0.022538497112691402;0.08171874880790711;0.24804335832595825
37;0.058639588140067644;0.8802106168866157;0.030371980002819328;0.13853124916553497;0.11054538726806641;0.04108622130006552;0.2749938151799142;0.0225588483735919;0.0818750023841858;0.24783216118812562
38;0.05232598137110472;0.8714905595779419;0.027126040663570165;0.13984375178813935;0.11067723155021668;0.04122748682275414;0.27416940378025173;0.022647379152476787;0.08203125;0.24793578386306764
39;0.05157187193632126;0.8374795389175415;0.026660554260015488;0.14234375;0.1099563205242157;0.04147744830697775;0.27368599772453306;0.02279720138758421;0.0821874976158142;0.2480190634727478
40;nan;0.8706561088562011;0.025229211449623107;0.13646874815225601;0.11040454506874084;0.041622604336589576;0.273099085316062;0.022892385348677637;0.08249999880790711;0.24791107177734376
41;0.0511041072756052;0.8326094841957092;0.026517144050449134;0.14075000166893006;0.11040395110845566;0.041745550557971;0.2723842806182802;0.02296737479045987;0.08249999880790711;0.24803035259246825
42;0.05522295951843262;0.8877612996101379;0.028564990907907487;0.1406562513113022;0.10990159094333649;0.0418313548900187;0.27219350850209595;0.02302842978388071;0.08234375119209289;0.2479240357875824
43;0.05447451189160347;0.9045763421058655;0.028199109360575677;0.13406250059604644;0.11038248091936112;0.041965484619140625;0.27204425893723966;0.023103497549891473;0.08203125;0.2482041299343109
44;0.05025998279452324;0.8644119691848755;0.02605749260634184;0.1358437517285347;0.1104538893699646;0.04213038608431816;0.27238550363108516;0.02319883815944195;0.08171874880790711;0.24827303886413574
45;0.055951344668865206;0.8876651930809021;0.028940681368112564;0.14615624845027925;0.11008162200450897;0.0423926473595202;0.27117857299745085;0.023362280055880546;0.08156250119209289;0.24847843647003173
46;0.0526463433355093;0.8679933588206769;0.027275159824639558;0.14387499898672104;0.1099596306681633;0.042722871899604796;0.26892396667972207;0.02358004543930292;0.0814062476158142;0.24905200004577638
47;0.057934787711128595;0.8478058683872223;0.030093063209205864;0.13715625047683716;0.11040084719657899;0.04273001430556178;0.26850513545796273;0.02359350845217705;0.0818750023841858;0.2487084984779358
48;0.05593884408473968;0.9008621740341186;0.028983715623617172;0.13606250077486037;0.11037883222103119;0.04277249528095126;0.26872271168977024;0.023620670940726996;0.0818750023841858;0.24855412244796754
49;0.0537640125118196;0.8659510087966918;0.027919118572026492;0.13749999880790711;0.11004978209733964;0.04292460782453418;0.2689829770475626;0.023709201719611883;0.08171874880790711;0.24852819442749025
50;nan;0.856199722290039;0.030437354147434235;0.13603125095367433;0.10965710878372192;0.04301529238000512;0.2679491705261171;0.023777144867926835;0.08171874880790711;0.24857818484306335
51;0.05300543636083603;0.9023216485977172;0.027467202842235566;0.1389375001192093;0.11032615840435028;0.04309107307344675;0.2672779742628336;0.0238248934969306;0.08125;0.2487698793411255
52;0.0523053777217865;0.8406060934066772;0.027133827060461045;0.1287187483906746;0.1102103579044342;0.04318461334332824;0.2675119307823479;0.023879375122487546;0.08109375014901161;0.24883624911308289
53;nan;0.8482759475708008;0.029208927005529402;0.14065625071525573;0.11005671977996827;0.043298689369112256;0.2675606906414032;0.023947474919259547;0.08093750029802323;0.24884852766990662
54;0.05675125420093537;0.8892999529838562;0.02935033619403839;0.13425000071525572;0.1102626496553421;0.04352970737963915;0.2660489815287292;0.02409729715436697;0.08078125268220901;0.24930492639541627
55;0.053103331625461575;0.8488278746604919;0.027597997188568115;0.13881249874830245;0.11002826035022735;0.043782048765569924;0.2652873005717993;0.02425392922013998;0.08062499910593032;0.2495683252811432
56;0.05835266990587115;0.8770499897003173;0.030242825234308837;0.1422500005364418;0.10997574627399445;0.04394295895472169;0.2649687177501619;0.02435600133612752;0.08031249791383743;0.2496117115020752
57;0.057755607877625154;0.884261064529419;0.03004114783834666;0.14143750071525574;0.11050054252147674;0.04394543394446373;0.2656072620302439;0.024355923011898994;0.08031249791383743;0.24931589961051942
58;0.05617558851838112;0.8775855851173401;0.02921863853931427;0.13981250047683716;0.11043059200048447;0.0441635973751545;0.2656262956559658;0.02449196744710207;0.08031249791383743;0.24929360747337342
59;0.060384281054139136;0.8824523138999939;0.031311637721955776;0.13678124874830247;0.11034715175628662;0.04427261473610997;0.2644974739290774;0.02456687856465578;0.08031249791383743;0.24944643974304198
60;0.058547151125967506;0.8163012647628785;0.030484289638698103;0.13356249809265136;0.11016520977020264;0.04429982090368867;0.26482440903782845;0.024580498225986958;0.08046875149011612;0.24902218580245972
61;0.055265178382396696;0.8226787686347962;0.028694350868463517;0.13684375047683717;0.1101010525226593;0.044390348438173535;0.26520928321406245;0.024634900130331518;0.08031250089406967;0.24877668619155885
62;0.054636395126581194;0.8072471523284912;0.028476107865571976;0.14037500202655792;0.11000464081764222;0.04448866862803698;0.26451896214857695;0.024702923092991113;0.08062500208616256;0.2487970471382141
63;0.0627246406674385;0.8858624029159546;0.03269706726074219;0.13590624928474426;0.10963642925024032;0.044707509223371744;0.2631287812255323;0.024845934007316828;0.08062500208616256;0.24895101189613342
64;0.056906884708441796;0.9067917084693908;0.029602584748645314;0.13471874952316285;0.1095836478471756;0.0448526693508029;0.26375353122130035;0.024927654955536126;0.08078125268220901;0.2486641526222229
65;0.059893704056739806;0.8966149139404297;0.03104236349463463;0.13565625071525575;0.11001940071582794;0.0450160407461226;0.2640358734875917;0.025022995565086602;0.08093750029802323;0.24843117594718933
66;0.05884718522429466;0.8729422903060913;0.030572947710752488;0.1371562498807907;0.10998800903558731;0.04513378608971834;0.2639271673746407;0.02509782835841179;0.08031249791383743;0.2484717845916748
67;nan;0.8204793691635132;0.0326874990016222;0.13393749952316283;0.10983759880065919;0.0451400020159781;0.26398050943389534;0.02510455986484885;0.08031249791383743;0.24825822114944457
68;0.057157291918993;0.9194384217262268;0.029650723226368428;0.13890625059604644;0.10957492083311081;0.044998602382838725;0.2638184068724513;0.025022838916629552;0.07999999970197677;0.24843108654022217
69;0.059342774450778964;0.902418909072876;0.030797387212514876;0.1389687490463257;0.10907635390758515;0.04503475995734334;0.26403931006789205;0.025043268408626317;0.07999999970197677;0.24834752082824707
70;0.056819612681865694;0.8171775150299072;0.02971978925168514;0.13912499964237213;0.1100765335559845;0.045312259998172524;0.2624085138551891;0.025233716145157813;0.07984375208616257;0.24887211322784425
71;0.0590638579428196;0.7764361369609832;0.030783219421282412;0.13559375047683717;0.10978995680809021;0.0454580900259316;0.2615293266251683;0.025335709936916827;0.07968749850988388;0.24891584515571594
72;0.05888364989310503;0.8813116478919983;0.030767162404954432;0.13499999791383743;0.10965502887964249;0.045591285452246666;0.2613809732720256;0.02541743088513613;0.07999999970197677;0.24872366189956666
73;0.06255709057673813;0.891039981842041;0.032544475430622694;0.13734374910593034;0.10965113818645478;0.04583626948297024;0.260739934630692;0.025573983136564494;0.07984375208616257;0.24879443645477295
74;0.06405114695429802;0.9110461187362671;0.03349996417760849;0.13993749737739564;0.1099803963303566;0.04599510161206126;0.260090340860188;0.02567613506689668;0.07984375208616257;0.2488618314266205
75;0.05585123911499977;0.8372166275978088;0.02918004471808672;0.13518749952316284;0.10953381791710853;0.04625448239967227;0.2583115297369659;0.025853118300437926;0.07984375208616257;0.24923009872436525
76;nan;0.8656489658355713;0.03248591721057892;0.14284374982118606;0.1098116409778595;0.04632870145142078;0.25875627994537354;0.025893978774547577;0.07984375208616257;0.24887699484825135
77;0.060811824202537536;0.9155204033851624;0.03155241727828979;0.12993750154972075;0.10989479094743729;0.04624806977808475;0.25944493506103755;0.02583949863910675;0.07984375208616257;0.24865046739578248
78;0.06004997787065804;0.8560828137397766;0.0313175964076072;0.1366250002384186;0.10935243725776672;0.046291190199553967;0.2593826590105891;0.025866737961769103;0.08031250089406967;0.24851306080818175
79;0.05868687665555626;0.8503536555171013;0.03054362824652344;0.13849999904632568;0.1098610919713974;0.046653231512755154;0.2581188129261136;0.026098281145095825;0.07984375208616257;0.2489285349845886
80;0.05672273779287934;0.8594899885356426;0.02970931604038924;0.13462499931454658;0.10930781602859498;0.04682106589898467;0.25773423006758095;0.026207163091748954;0.08015624731779099;0.24886279106140136
81;0.05605117544531822;0.859358172416687;0.02922729142010212;0.13621875047683715;0.10932575806975364;0.04656855827197433;0.2592038277536631;0.02603698968887329;0.08046875149011612;0.24806551337242128
82;0.06587598651647568;0.9202721500396729;0.0343700660765171;0.1402187505364418;0.1091217964887619;0.046544335596263406;0.2601216807030141;0.026023135147988798;0.08078125268220901;0.24763602018356323
83;nan;0.884595537185669;0.03420428156852722;0.1384375;0.10921549201011657;0.04651446752250195;0.25966831082478165;0.02601616717875004;0.08109374791383743;0.24726918935775757
84;0.06549326211214065;0.9280583786964417;0.03416983440518379;0.1395000022649765;0.10959608852863312;0.04663497293367982;0.2598290445283055;0.026090998481959105;0.08125000149011612;0.2471755027770996
85;0.06520488142967223;0.923145456314087;0.0339866654574871;0.1394374978542328;0.10928710877895355;0.04713403452187777;0.25831817807629703;0.026417647302150727;0.08062499910593032;0.24774630665779113
86;0.0639423677092418;0.8834097290039062;0.0332199080218561;0.1338750022649765;0.10937783002853393;0.04754171278327703;0.2576631887815893;0.0266630451194942;0.08015625029802323;0.24821966290473937
87;0.06421226128935814;0.9063044095039368;0.03336867593228817;0.1382187497615814;0.1096683806180954;0.04777830382809043;0.25717008523643015;0.026812867354601623;0.0793749988079071;0.24862847924232484
88;0.06445721432566642;0.9313978457450867;0.03365012116730213;0.13928125143051148;0.10908198028802872;0.04772399719804525;0.2573084386065602;0.02677881820127368;0.0793749988079071;0.2484330117702484
89;0.06353154689073563;0.8890351390838623;0.033209360092878344;0.14181249976158142;0.1094986155629158;0.04795932834967971;0.25704027311876415;0.026928559131920337;0.0792187511920929;0.24857410788536072
90;0.06675325766205788;0.9255919098854065;0.034988994151353835;0.13734375059604645;0.10927606403827667;0.04804400587454438;0.2568012660369277;0.026983040757477282;0.0792187511920929;0.2484780192375183
91;0.055773834511637685;0.8248038673400879;0.0291833343077451;0.13712499916553497;0.1090019154548645;0.04824146293103695;0.25631739320233465;0.027112352196127176;0.07890625;0.24879983067512512
92;0.06363805443048477;0.8885208797454834;0.03322908639907837;0.135625;0.10879924595355987;0.048424224741756915;0.25595944561064243;0.027228125277906655;0.07890625;0.2488464593887329
93;0.06511789591982961;0.8683200502395629;0.03396975506097078;0.13206249862909317;0.1087055742740631;0.04839826701208949;0.25580414701253174;0.027214505616575478;0.07890624776482583;0.24855518937110901
94;0.060722384974360465;0.9116810822486877;0.031618124395608904;0.13731250107288362;0.10879954069852829;0.04854125492274761;0.2557342117652297;0.02730303639546037;0.07890624776482583;0.24857097864151
95;0.06076091572642326;0.8245960330963135;0.03175814852118492;0.13868750095367433;0.10838091939687729;0.04890403198078275;0.25491164093837143;0.027534579578787088;0.0785937525331974;0.24897996187210084
96;0.06597318559885025;0.8860533356666564;0.03448670983314514;0.13634375005960464;0.10901584357023239;0.04926182413473725;0.2541717684827745;0.027766041457653046;0.07796875014901161;0.24948824048042298
97;nan;0.8372208786010742;0.03414348013699055;0.13356250047683715;0.10881398737430573;0.04948630472645164;0.25435541812330487;0.02790224403142929;0.07781250253319741;0.24950211644172668
98;0.058095969781279566;0.8338882558047771;0.030394503064453602;0.13490624904632567;0.10847165703773498;0.04955633133649826;0.25454349992796776;0.02794975619763136;0.0782812513411045;0.24919524192810058
99;0.06331027939915657;0.8535336303710938;0.03309978201985359;0.1279999989271164;0.1089716374874115;0.04938215808942914;0.2555708692409098;0.02784056095406413;0.07875000014901161;0.24824745655059816
