epoch;F1_score;Precision;Recall;acc;loss;val_F1_score;val_Precision;val_Recall;val_acc;val_loss
0;0.0814069002866745;0.04322111159563065;0.76923255443573;0.0013437500060535968;0.9050498414039612;0.0358619736507535;0.028214901126921176;0.049331145361065865;0.001406249962747097;0.6513184905052185
1;0.04874399125576019;0.038443898558616636;0.11221596457064152;0.0013750000135041773;0.6493796038627625;0.008869875967502595;0.026128852739930153;0.005344416433945298;0.001249999983701855;0.6177112579345703
2;0.023901662155985832;0.03204012297093868;0.020030165016651155;0.0009375000256113708;0.5979811239242554;nan;0.01317211240530014;0.0004358448553830385;0.06281250119209289;0.5729939937591553
3;0.03702992469072342;0.03770074039697647;0.03892275556921959;0.0010937500116415322;0.3842788088321686;nan;0.008150608837604522;0.00031326347962021826;0.3948437571525574;0.2972882747650146
4;0.02089390777051449;0.03795660186558962;0.015148672088980675;0.01350000012665987;0.2745999526977539;nan;0.010847457498311997;8.172090747393668e-05;0.3828125;0.39834903478622435
5;0.004663230339065194;0.03032639218494296;0.0025883155269548295;0.12706250071525574;0.23676446855068206;nan;0.007999999821186066;1.3620151730719953e-05;0.39687501192092894;0.3408177852630615
6;0.0018828001478686928;0.029141829647123814;0.0009756110841408372;0.2890312451124191;0.22581339597702027;nan;0.01269841343164444;6.8100758653599765e-06;0.39828125238418577;0.3378164529800415
7;0.0010398288918077015;0.02670676454901695;0.0005308708480879432;0.37234375715255735;0.21165114045143127;nan;0.0;0.0;0.3975000023841858;0.35019434690475465
8;0.000886898678727448;0.02494775839149952;0.00045239231869345533;0.41262499332427977;0.20000057339668273;nan;0.0;0.0;0.4020312428474426;0.2993261218070984
9;0.0006866046169307083;0.02999119371175766;0.0003475876082666218;0.4327187514305115;0.19609816789627074;nan;0.0;0.0;0.40109375715255735;0.31981287002563474
10;0.0004226924479007721;0.021398663222789764;0.00021359259786549956;0.4390312433242798;0.18272233366966248;nan;0.0;0.0;0.3998437404632568;0.3230109393596649
11;nan;0.022231499329209328;0.00022008352389093488;0.43953125;0.17316982090473176;nan;0.0;0.0;0.4009374976158142;0.31377320885658266
12;nan;0.017577235847711564;0.0001735361060127616;0.4411875033378601;0.17201396465301513;nan;0.0;0.0;0.40078123807907107;0.3117725372314453
13;0.00032525685615837575;0.01835607200860977;0.0001641326129902154;0.44140625119209287;0.1699419140815735;nan;0.0;0.0;0.3998437404632568;0.3225662648677826
14;nan;0.01713502958416939;0.00016885547258425505;0.4374062490463257;0.16898491978645325;nan;0.0;0.0;0.4;0.3216446578502655
15;0.0003256361275271047;0.017633671183139087;0.00016439414663182105;0.4411562502384186;0.1672164571285248;nan;0.0;0.0;0.40062499046325684;0.3101435601711273
16;nan;0.020880278795957566;0.00017131705535575748;0.43987499713897704;0.16588030695915224;nan;0.0;0.0;0.4;0.3207512617111206
17;0.00040184898127336053;0.020453777946531772;0.00020336016590590588;0.4415937519073486;0.16433671593666077;nan;0.0;0.0;0.40078125;0.3075679361820221
18;0.00037184917484410105;0.021261424273252488;0.000187652021413669;0.44143750905990603;0.16342218160629274;nan;0.0;0.0;0.40078125;0.3088685154914856
19;nan;0.018523299396038057;0.00014111528987996281;0.4393437564373016;0.16330342411994933;nan;0.0;0.0;0.40078125;0.3108976721763611
20;nan;0.019336609598249198;0.00018298872397281229;0.44418750643730165;0.1629331576824188;nan;0.0;0.0;0.40031249523162843;0.3125840425491333
21;0.00023100083810277284;0.014414907395839692;0.00011647437931969762;0.4386562478542328;0.1632780295610428;nan;0.0;0.0;0.40015625953674316;0.31477715969085696
22;0.00030136157991364596;0.019104872569441794;0.0001520655071362853;0.4417812490463257;0.16269948482513427;nan;0.0;0.0;0.4;0.31614951491355897
23;0.00037713197234552355;0.020297693684697152;0.0001905342229292728;0.44221875071525574;0.1626453185081482;nan;0.0;0.0;0.4;0.31588140726089475
24;0.0002873490657657385;0.01732570556923747;0.00014493042894173414;0.43796875;0.16251928389072418;nan;0.0;0.0;0.4;0.31699705123901367
25;nan;0.01785008043050766;0.00013422475894913076;0.4386562442779541;0.16258249223232268;nan;0.0;0.0;0.4;0.3167510211467743
26;0.00028422673145541924;0.017224733913317324;0.0001433183603512589;0.43862500429153445;0.16233882308006287;nan;0.0;0.0;0.4;0.316421377658844
27;nan;0.017194221848621963;0.00013738915804424324;0.43793749809265137;0.16223195880651475;nan;0.0;0.0;0.4;0.3158807635307312
28;nan;0.018475995436310767;0.00017843020235886798;0.44121875286102297;0.16252054333686827;nan;0.0;0.0;0.4;0.3148957252502441
29;0.000333064520964399;0.019946804903447628;0.00016815356982988305;0.4388437473773956;0.1622054797410965;nan;0.0;0.0;0.4;0.3143985867500305
30;0.00034530083648860456;0.020948820784687995;0.00017416219401638955;0.43890625357627866;0.16192431330680848;nan;0.0;0.0;0.4;0.31509177684783934
31;0.0003062277621938847;0.018885400779545307;0.00015439035487361253;0.4397187447547913;0.16182393521070482;nan;0.0;0.0;0.4;0.31524104475975034
32;0.0003138339577708393;0.019170302860438825;0.000158279453535215;0.44125000476837156;0.1620451682806015;nan;0.0;0.0;0.4;0.3144199073314667
33;0.0003223769454052672;0.020218389034271242;0.00016261454322375358;0.43828125;0.16195233702659606;nan;0.0;0.0;0.4;0.31395052671432494
34;nan;0.019542070776224135;0.00015967787127010524;0.4381249976158142;0.16187549471855164;nan;0.0;0.0;0.4;0.3141538977622986
35;nan;0.01369802113622427;0.00011991849329206162;0.43828125;0.1618078902363777;nan;0.0;0.0;0.4;0.31480489373207093
36;0.0002995117285172455;0.02073319741524756;0.00015092229368747213;0.43784375190734864;0.16163277506828308;nan;0.0;0.0;0.4;0.31434777975082395
37;nan;0.01889989249408245;0.00019776264365646058;0.441468745470047;0.16178784251213074;nan;0.0;0.0;0.4;0.31362534165382383
38;0.0002754358301172033;0.016723255030810832;0.00013905696454457938;0.4413124990463257;0.1615589118003845;nan;0.0;0.0;0.4;0.3134979784488678
39;nan;0.014223104882985354;0.00012795408219972159;0.43956249475479126;0.16139863014221192;nan;0.0;0.0;0.4;0.31404263377189634
40;0.0002442947105737403;0.016018197927623986;0.0001231367836589925;0.4407187485694885;0.16186091423034668;nan;0.0;0.0;0.4;0.31377195119857787
41;0.0002735792557359673;0.01857472486793995;0.00013808447401970626;0.4405000066757202;0.16164164781570434;nan;0.0;0.0;0.3998437404632568;0.3143457412719727
42;nan;0.015572518035769463;0.0001280052843503654;0.4389687442779541;0.16146170526742934;nan;0.0;0.0;0.3998437404632568;0.3146436631679535
43;nan;0.01745158813893795;0.0001321060981717892;0.44056250095367433;0.1616976112127304;nan;0.0;0.0;0.3998437404632568;0.31423514485359194
44;0.0002915220268187113;0.017291906606405973;0.00014724988417583518;0.44006249725818636;0.16128899037837982;nan;0.0;0.0;0.3998437404632568;0.3137142062187195
45;nan;0.015938854161649942;0.00011615534778684377;0.4403124976158142;0.16106778293848037;nan;0.0;0.0;0.3998437404632568;0.31393382549285886
46;nan;0.015508068203926086;0.0001523275178624317;0.4368750095367432;0.1606288707256317;nan;0.0;0.0;0.3998437404632568;0.3132851719856262
47;nan;0.01894427090883255;0.00015421673888340592;0.4398437511920929;0.16127307891845702;nan;0.0;0.0;0.3998437404632568;0.3124927461147308
48;0.0003040261141723022;0.01645307306200266;0.0001535677118226886;0.44043750762939454;0.16070809751749038;nan;0.0;0.0;0.3998437404632568;0.31253411173820494
49;0.00025805565644986927;0.014190892446786165;0.00013024944397329818;0.44165624856948854;0.16093678951263427;nan;0.0;0.0;0.3998437404632568;0.3127570390701294
50;nan;0.01867890790104866;0.0001492169123957865;0.43784374952316285;0.16073813498020173;nan;0.0;0.0;0.3998437404632568;0.3125254392623901
51;0.0003071540786186233;0.019211221616715193;0.00015497986314585432;0.43859374821186065;0.16065557718276977;nan;0.0;0.0;0.3998437404632568;0.31221532821655273
52;nan;0.01771133504807949;0.00013970436702948064;0.4369999957084656;0.1608687448501587;nan;0.0;0.0;0.3998437404632568;0.312142539024353
53;0.0002647052056272514;0.015061019621789455;0.00013356713978282642;0.4395937466621399;0.1607556188106537;nan;0.0;0.0;0.3998437404632568;0.31221007108688353
54;nan;0.02001787707209587;0.0001629557943670079;0.4392187452316284;0.16042994797229768;nan;0.0;0.0;0.3998437404632568;0.31251669526100156
55;nan;0.019558159857988356;0.00015472232771571726;0.43834375381469726;0.1609347802400589;nan;0.0;0.0;0.3998437404632568;0.3133044719696045
56;0.00031210666958941146;0.018024822473526003;0.00015746834033052436;0.43709375470876694;0.16067598938941954;nan;0.0;0.0;0.3998437404632568;0.3133751690387726
57;0.000278108068741858;0.017181333079934122;0.00014032099628821015;0.4405937457084656;0.16055719017982484;nan;0.0;0.0;0.3998437404632568;0.3140378654003143
58;0.00031042188755236566;0.018861287981271745;0.0001566302462015301;0.4383749997615814;0.16005796074867248;nan;0.0;0.0;0.3998437404632568;0.31409510374069216
59;nan;0.021221513375639916;0.0001655083184596151;0.440625;0.1601713615655899;nan;0.0;0.0;0.3998437404632568;0.3141070485115051
60;nan;0.01494382558390498;0.00011954203946515918;0.43850000500679015;0.1602482682466507;nan;0.0;0.0;0.3998437404632568;0.31390072107315065
61;0.0002976347639923915;0.01717941530048847;0.00015029750240501017;0.44156250476837156;0.16031133532524108;nan;0.0;0.0;0.3998437404632568;0.3139262855052948
62;nan;0.021250904351472855;0.0001712723105447367;0.43834374904632567;0.16023024320602416;nan;0.0;0.0;0.3998437404632568;0.31407336592674256
63;0.00030603872844949366;0.017676893696188925;0.00015440671297255903;0.4411250066757202;0.1598908594250679;nan;0.0;0.0;0.3998437404632568;0.31293543577194216
64;0.0002942683600122109;0.016100324280560015;0.00014870630198856815;0.4380312490463257;0.15954902082681655;nan;0.0;0.0;0.3998437404632568;0.31224029064178466
65;nan;0.020566168464720248;0.00017006790396408177;0.4394687509536743;0.15998732328414916;nan;0.0;0.0;0.4;0.31130027770996094
66;0.0002455602725967765;0.014621281176805495;0.00012408425682224332;0.44078124046325684;0.159195739030838;nan;0.0;0.0;0.4;0.31144300699234007
67;0.0003313662321306765;0.019605230391025543;0.00016725392371881752;0.4382187485694885;0.15938368201255798;nan;0.0;0.0;0.4;0.31161257028579714
68;nan;0.01570622220635414;0.00011990714701823891;0.4409062457084656;0.15953798830509186;nan;0.0;0.0;0.3998437404632568;0.3118551313877106
69;0.0003011355845956132;0.019339737817645072;0.00015180080576101317;0.4406249952316284;0.15940420389175414;nan;0.0;0.0;0.3998437404632568;0.31182366609573364
70;0.00029388508875854313;0.019681936651468276;0.00014808185165748;0.4391250002384186;0.15962340772151948;nan;0.0;0.0;0.3998437404632568;0.31246373653411863
71;nan;0.015673263184726238;0.00011735368745576125;0.43787499725818635;0.15950883209705352;nan;0.0;0.0;0.3998437404632568;0.3122998774051666
72;nan;0.018046190850436686;0.00013254022545879706;0.44015625;0.15944300651550292;nan;0.0;0.0;0.3998437404632568;0.31299809217453
73;nan;0.017343797758221625;0.00013819920655805618;0.43721874952316286;0.15929917991161346;nan;0.0;0.0;0.39968750476837156;0.3134639859199524
74;0.0002565156586933881;0.019384180903434755;0.00012927334639243783;0.4387187480926514;0.15931585013866426;nan;0.0;0.0;0.39968750476837156;0.31282779574394226
75;nan;0.018831548020243644;0.000153308498847764;0.43899999976158144;0.15915230989456178;nan;0.0;0.0;0.39968750476837156;0.3128182888031006
76;0.0003158138378057629;0.02020093075931072;0.00015926069812849164;0.43934375047683716;0.15937973141670228;nan;0.0;0.0;0.39968750476837156;0.31229506731033324
77;0.00032924779807217417;0.020076536014676093;0.00016621920105535536;0.4387812566757202;0.15906572669744493;nan;0.0;0.0;0.39968750476837156;0.3121528744697571
78;0.0002425428875721991;0.015771302087232472;0.00012224778707604857;0.4386249947547913;0.15842246234416962;nan;0.0;0.0;0.3998437404632568;0.31167627573013307
79;0.0003280992891814094;0.015588323753327131;0.00016600889117398765;0.43874999701976775;0.1595691740512848;nan;0.0;0.0;0.3998437404632568;0.3117455720901489
80;0.0002667916991049424;0.016722223721444607;0.00013451567618176342;0.44031250834465024;0.15896472811698914;nan;0.0;0.0;0.39968750476837156;0.31228822469711304
81;0.0003197708923835307;0.021376786287873983;0.00016121160879265518;0.4381562459468842;0.15901638209819793;nan;0.0;0.0;0.39968750476837156;0.31214856505393984
82;0.0002643658418674022;0.017777568325400353;0.0001332952716620639;0.43915624856948854;0.15818805873394012;nan;0.0;0.0;0.3998437404632568;0.3116579055786133
83;0.0002839780072099529;0.018237642627209425;0.00014318828660179862;0.43956249952316284;0.15894792795181276;nan;0.0;0.0;0.3998437404632568;0.31188818216323855
84;0.0002477917695068754;0.018035403974354266;0.0001247941461042501;0.44043750047683716;0.15867164492607116;nan;0.0;0.0;0.3998437404632568;0.31189651489257814
85;0.00026833387441001834;0.01733519073575735;0.00013531612654333003;0.4397812527418137;0.15839092910289765;nan;0.0;0.0;0.39968750476837156;0.3124101281166077
86;0.0002361130091594532;0.01938238856382668;0.0001189450712990947;0.4387187457084656;0.15858191072940828;nan;0.0;0.0;0.39968750476837156;0.31313546895980837
87;0.00025985821906942874;0.01529476661235094;0.0001310916458896827;0.4388749998807907;0.15859694838523863;nan;0.0;0.0;0.39968750476837156;0.3124846339225769
88;0.00028037826181389393;0.017443573772907256;0.00014135725155938416;0.43793750524520875;0.15814789593219758;nan;0.0;0.0;0.39968750476837156;0.3130170464515686
89;0.00026392287807539103;0.018502263817936182;0.00013298132078489288;0.4394062542915344;0.15814431071281432;nan;0.0;0.0;0.39968750476837156;0.3127039909362793
90;nan;0.015875206887722017;0.00012137549463659526;0.43887499332427976;0.15824012100696563;nan;0.0;0.0;0.39968750476837156;0.3127629399299622
91;0.00027367403730750085;0.015973347565159203;0.00013807419076329098;0.44096875190734863;0.158698493540287;nan;0.0;0.0;0.39968750476837156;0.3121504545211792
92;0.0003070294065400958;0.01881131134927273;0.00015478920366149396;0.44162500023841855;0.15795257568359375;nan;0.0;0.0;0.3998437404632568;0.3110696613788605
93;0.000276929892715998;0.01945253077894449;0.00013962274650111795;0.4413437497615814;0.15804399967193603;nan;0.0;0.0;0.3998437404632568;0.31093220710754393
94;nan;0.014908650033175945;0.00010715270414948463;0.44237499237060546;0.15799811482429504;nan;0.0;0.0;0.3998437404632568;0.3111819863319397
95;nan;0.020949449762701987;0.00015614465635735542;0.44128124952316283;0.15814466893672943;nan;0.0;0.0;0.3998437404632568;0.3118159055709839
96;nan;0.015387481935322285;0.00011170064593898133;0.4343124961853027;0.15785361886024474;nan;0.0;0.0;0.3998437404632568;0.31131271123886106
97;0.00021119556899066083;0.013449481576681138;0.0001065946496964898;0.4394374990463257;0.15792858958244324;nan;0.0;0.0;0.3998437404632568;0.3105814039707184
98;nan;0.017302812747657298;0.00013492967933416368;0.441781250834465;0.15784292221069335;nan;0.0;0.0;0.3998437404632568;0.31054727435112
99;0.00023361249477602542;0.015288070663809777;0.00011774693150073289;0.43825000405311587;0.1573381793498993;nan;0.0;0.0;0.3998437404632568;0.3114124596118927
