epoch;F1_score;Precision;Recall;acc;loss;val_F1_score;val_Precision;val_Recall;val_acc;val_loss
0;0.07528797447681428;0.04105736762285232;0.47060070276260374;0.0023437500651925804;0.872968921661377;0.07672115713357926;0.04111985042691231;0.5717016577720642;0.0010937499813735486;0.8292771458625794
1;0.09626371532678604;0.052385037168860435;0.595199099779129;0.0023124999646097423;0.829819278717041;0.08466825932264328;0.045390255749225616;0.628756296634674;0.001875000074505806;0.8165304660797119
2;0.10694662272930146;0.05837641447782516;0.662561457157135;0.002125000050291419;0.7990165495872498;0.08300423473119736;0.04408985078334808;0.7073923110961914;0.002031249925494194;0.9012294769287109
3;0.11430005446076393;0.06282551430165767;0.6840766954421997;0.0027187500079162417;0.7704779291152954;0.08483087122440339;0.044870884716510774;0.7750998735427856;0.001718750037252903;0.9927170276641846
4;0.12457500815391541;0.06851156622171402;0.7065326833724975;0.00234375;0.7416798305511475;0.08170807510614395;0.0430013470351696;0.818129551410675;0.0020312500768341125;1.118903923034668
5;0.13629785686731338;0.07645114243030549;0.7235491228103638;0.0026875000074505807;0.7175671029090881;0.08940573632717133;0.047260654717683794;0.8276763558387756;0.0032812499441206453;0.9647003889083863
6;0.1464269459247589;0.08134558856487274;0.762492470741272;0.0035312500316649676;0.7023405289649963;0.09354242831468582;0.049545635282993314;0.8380626678466797;0.002812499972060323;0.9730430603027344
7;0.15665336966514587;0.08787873923778534;0.7851841616630554;0.0025312499701976776;0.6904851722717286;0.08621038794517517;0.04545083343982696;0.8352441668510437;0.004062499850988388;1.0245822429656983
8;0.16738180249929427;0.0943817463517189;0.7837421250343323;0.003031250024214387;0.6745227980613708;0.08722226023674011;0.04608648791909218;0.8124046087265014;0.0021874999278225006;1.079480266571045
9;0.17835927993059159;0.10124684095382691;0.7808123469352722;0.0031562499701976777;0.6641232347488404;0.09416067600250244;0.0501000314950943;0.7821645379066468;0.002031249925494194;1.0294682502746582
10;0.18711269795894622;0.10671695828437805;0.7759295153617859;0.0027499999571591618;0.6486101388931275;0.11776746809482574;0.06399044245481492;0.7440262913703919;0.003593749855645001;0.8262835025787354
