epoch;F1_score;Precision;Recall;acc;loss;val_F1_score;val_Precision;val_Recall;val_acc;val_loss
0;0.07756107583642007;0.04237707830965519;0.5754966413974762;0.0016250000311993063;0.780875244140625;0.030348626524209978;0.045154749602079394;0.023582873493433;0.0004687500069849193;0.5847719550132752
1;0.05989790067076683;0.04142546072602272;0.1461348293721676;0.0008750000223517418;0.4166077446937561;0.0029305611940799283;0.024815436615608633;0.0015627813278115354;0.004843749990686774;0.33950566649436953
2;0.019114875979721547;0.040127453058958054;0.014766017533838749;0.005718749947845936;0.2374065637588501;nan;0.05241045281291008;0.0005361498566344381;0.05859375149011612;0.2511388063430786
3;0.0023227735713589937;0.03835390383377671;0.0012031441206636372;0.09299999997019767;0.20174026370048523;nan;0.09091954380273819;0.0003113429294899106;0.1362500011920929;0.29530721306800845
4;0.0007515418535331264;0.03510239651426673;0.0003819055194617249;0.19765625059604644;0.17608801662921905;nan;0.11905000060796737;0.00021421053679659963;0.14328124821186067;0.3238447427749634
5;nan;0.030536588970571755;0.00022603786070249043;0.2715312504768372;0.16380130767822265;0.005853467126144096;0.15361025482416152;0.0029887320124544203;0.10687499940395355;0.35127708315849304
6;nan;0.04064552515745163;0.00022812051698565484;0.29309375047683717;0.15016081809997558;0.015177766710985452;0.21734642386436462;0.007913307787384838;0.1260937497019768;0.32288365960121157
7;0.00039165765163488685;0.03984703116118908;0.0001969419012311846;0.29715624809265134;0.15079633593559266;0.05599681939929724;0.2515681520104408;0.03475590101443231;0.0753124974668026;0.38037699460983276
8;0.0003588544423109852;0.0454292737133801;0.00018018066897639072;0.2953125011920929;0.15416843235492705;0.06289062598953024;0.25741244554519654;0.03788437272887677;0.09578124806284904;0.3534159898757935
9;nan;0.038034125957638026;0.00012693703174591065;0.30862499952316286;0.14644441097974778;0.0816033810377121;0.29340837001800535;0.05144699928350747;0.07906250134110451;0.3582943618297577
10;nan;0.0427959305793047;0.00015219120294204913;0.29550000071525573;0.14256536662578584;0.12720788661390542;0.34123849868774414;0.10690303053706884;0.05359375011175871;0.37849571704864504
11;0.0005646733933826908;0.0948506374284625;0.000283283649769146;0.29565624713897704;0.13613679349422456;0.1504647545516491;0.37660651206970214;0.1438805902376771;0.06531250067055225;0.34326632022857667
12;0.001542647125897929;0.1813432465493679;0.0007753659057198092;0.2864999973773956;0.13312505841255187;0.16929542422294616;0.4253703474998474;0.17144424244761466;0.06453125067055225;0.33368295431137085
13;nan;0.34020035341382027;0.0019245194643735886;0.2923437488079071;0.1255092030763626;0.18414099514484406;0.35420814752578733;0.21713842824101448;0.03921874910593033;0.3477333724498749
14;0.013220842834562064;0.5610417866706848;0.0067393022892065346;0.2787812501192093;0.12137912213802338;0.19625265002250672;0.27922343611717226;0.2560202211141586;0.015312499855645001;0.3914719045162201
15;0.02564499819651246;0.5544631190598011;0.013268060937989504;0.2627187490463257;0.11950000166893006;0.21479029953479767;0.28956149220466615;0.2680336132645607;0.01546875030035153;0.3661235570907593
16;0.055768188135698435;0.6616872537136078;0.029698159224353732;0.24231249928474427;0.11441313683986663;0.22916914522647858;0.2977443873882294;0.2794560581445694;0.01625000030035153;0.33930152654647827
17;0.05520273499190807;0.6846670258045197;0.02974838588386774;0.2411874982714653;0.11395918190479279;0.2144194722175598;0.18470303118228912;0.3362760305404663;0.010781250335276127;0.3919079065322876
18;0.10026401437819005;0.7187862801551819;0.05823732379823923;0.2304375022649765;0.11565297842025757;0.2397155225276947;0.2648769855499268;0.31454594135284425;0.014843749860301615;0.34438124895095823
19;0.10287798326462508;0.6639066982269287;0.057422418384812775;0.19765625178813934;0.1151371169090271;0.24530057311058046;0.22606589198112487;0.3426442801952362;0.00812499988824129;0.38166693449020384
20;0.12781024411320685;0.7396331739425659;0.07635456293821336;0.2438437509536743;0.10874631106853486;0.23470391035079957;0.21898229718208312;0.3402571976184845;0.011875000083819032;0.3492815375328064
21;0.15103643909096717;0.7317325282096863;0.09458785265684128;0.20187499821186067;0.10550647318363189;0.2615892767906189;0.25260964334011077;0.34954763650894166;0.012187500018626451;0.33000621795654295
22;0.14155023485422136;0.7002401804924011;0.08431340336799621;0.20743749856948854;0.1070144671201706;0.23953195810317993;0.1957338958978653;0.37985147833824157;0.009218749683350324;0.3549028515815735
23;0.1886367356777191;0.7455724310874939;0.11878089487552643;0.22103125035762786;0.10353225469589233;0.22599788904190063;0.15863933265209199;0.43271124362945557;0.0054687499068677425;0.4020300030708313
24;0.19801015205681324;0.7305038857460022;0.12336667243391275;0.22324999839067458;0.1019595068693161;0.22883434295654298;0.15939452946186067;0.451665472984314;0.0048437500838190315;0.39592946171760557
25;0.22907107457518577;0.7801715731620789;0.15279254712164403;0.18840625166893005;0.10165549010038376;0.22376744151115419;0.15138707160949708;0.46275877952575684;0.0064062499441206455;0.3818902254104614
26;0.2158299211412668;0.6743625929951668;0.13288106208667158;0.18534374862909317;0.0981311896443367;0.2481321096420288;0.17377251982688904;0.47015866041183474;0.008437500009313226;0.3602207124233246
27;0.2526741194725037;0.7163051104545594;0.15679551899433136;0.20734375;0.09719941169023513;0.2205994725227356;0.1431650251150131;0.5114522576332092;0.007031249860301614;0.38978524804115294
28;0.28422939956188203;0.7218858766555786;0.1907021802663803;0.18753125309944152;0.09894845515489578;0.26977928876876833;0.21081234216690065;0.4551584005355835;0.009531250270083547;0.3107335686683655
29;0.26450289487838746;0.7053195536136627;0.18195573247969152;0.20753124952316285;0.10266703367233276;0.25448216795921325;0.1749483197927475;0.5113903641700744;0.00656249993480742;0.3608617663383484
30;0.319084161221981;0.669522944688797;0.21520301163196565;0.1954999989271164;0.09562247306108475;0.24241819381713867;0.16214507818222046;0.5250543236732483;0.008281249785795808;0.35207887887954714
31;0.32886860504746435;0.7202367395162582;0.22388068214058876;0.20143750071525574;0.09168897956609726;0.2557658016681671;0.17425050735473632;0.5193157315254211;0.009062499972060323;0.3311625838279724
32;0.35726500421762464;0.7492742419242859;0.24172366350889207;0.18337500244379043;0.09313098669052124;0.21707595586776735;0.13356378078460693;0.6045767903327942;0.005781249934807419;0.3860324501991272
33;0.3199036020040512;0.6523465532064437;0.22541435480117797;0.18674999952316285;0.09469357788562775;0.22616322636604308;0.13879747092723846;0.6345125436782837;0.0048437498975545164;0.40231571197509763
34;0.36832557022571566;0.718441596031189;0.28178683161735535;0.18078125059604644;0.09719698280096054;0.27424381375312806;0.1918369472026825;0.5506587743759155;0.0101562496740371;0.3139262318611145
35;0.3811363735795021;0.7121193355321884;0.2794931814074516;0.1952500009536743;0.09171305179595947;0.21519733667373658;0.1301453471183777;0.6436171889305115;0.008750000188592821;0.3778799057006836
36;0.40301086142659187;0.6751201404631137;0.30663942664861676;0.1732812488079071;0.09896289467811585;0.2976603865623474;0.2074923813343048;0.589951491355896;0.009218750009313225;0.3075641214847565
37;0.4012822490930557;0.7153753435611725;0.28860805362463;0.17396874994039535;0.09368418604135513;0.24272659420967102;0.15388992577791213;0.6308389067649841;0.01078124986961484;0.3511529743671417
38;0.42641940236091613;0.7237126755714417;0.3142957353591919;0.18578124672174454;0.08948160916566848;0.23533131778240204;0.1446899875998497;0.6826582312583923;0.00953125013038516;0.3567718744277954
39;0.4978499937057495;0.7275800681114197;0.3923156189918518;0.16421874940395356;0.08826459765434265;0.22137267589569093;0.13093509525060654;0.7440677881240845;0.007031249930150807;0.3822488248348236
40;0.4730950236320496;0.7312732660770416;0.36496283531188967;0.1717500001192093;0.0865628269314766;0.21950427889823915;0.12913084924221038;0.7458140134811402;0.00874999996740371;0.37190369367599485
41;0.4753805148601532;0.6750248873233795;0.3812135314941406;0.17784375131130217;0.09022797018289566;0.28747211396694183;0.19134979248046874;0.6556376576423645;0.012812500004656613;0.2910764992237091
42;0.471944237947464;0.7242125821113586;0.37468296945095064;0.17378125011920928;0.09032257527112961;0.199727800488472;0.1146687164902687;0.7867241859436035;0.006718750111758709;0.386867892742157
43;0.5077850866317749;0.6886847245693207;0.41357991099357605;0.15915625125169755;0.08704080939292907;0.20965540707111358;0.1229775995016098;0.752339220046997;0.010156250116415322;0.35991588830947874
44;0.4678243255615234;0.6262045335769654;0.38474212884902953;0.16987499698996544;0.09001091301441193;0.20134460031986237;0.11488444954156876;0.8251232147216797;0.007656249927822501;0.3797769665718079
45;0.5115745386481285;0.7296764397621155;0.419744241386652;0.15781249940395356;0.09010453552007675;0.29231267273426054;0.18449875712394714;0.7387402057647705;0.0099999999278225;0.3163317382335663
46;0.48698741853237154;0.749480528831482;0.3865362870693207;0.16950000077486038;0.08644247591495514;0.2510750502347946;0.15420446991920472;0.7391930103302002;0.012031249853316694;0.31732210516929626
47;0.5325930738449096;0.6854660487174988;0.4495710754394531;0.1418437495827675;0.08447295427322388;0.19409864842891694;0.1097925290465355;0.8468946695327759;0.006093750079162419;0.3973874568939209
48;0.5327239632606506;0.7137733936309815;0.45850700497627256;0.1403437501192093;0.08715770959854126;0.2377484768629074;0.14158139675855635;0.7656705379486084;0.011093750153668225;0.32877286672592165
49;0.5693740129470826;0.7326916074752807;0.4821599495410919;0.15431249976158143;0.08339848518371581;0.19236644804477693;0.10874101668596267;0.8395361781120301;0.009531250153668226;0.3731499195098877
50;0.5628372037410736;0.7411725783348083;0.47156242609024046;0.13446875005960465;0.08206055730581284;0.23711136877536773;0.1383865848183632;0.8402311086654664;0.009531250002328306;0.3460369884967804
51;0.5226017665863038;0.7219815373420715;0.447540203332901;0.11987499803304673;0.08445830494165421;0.17143881618976592;0.09465448409318925;0.9145778179168701;0.007812499778810889;0.42892411947250364
52;0.5470478570461274;0.6891030883789062;0.47464674711227417;0.14399999856948853;0.08367027580738068;0.18969635367393495;0.10694681406021118;0.8452941417694092;0.011093750002328307;0.37466232776641845
53;0.588863046169281;0.7307170462608338;0.5164999830722808;0.1365625;0.07859472155570985;0.218385311961174;0.12661080658435822;0.8019878506660462;0.013124999927822501;0.33246943950653074
54;0.5548275291919709;0.6897699820995331;0.4854838681221008;0.11871875017881393;0.08182951182126999;0.23042211234569548;0.13439806997776033;0.8179681420326232;0.011406249704305083;0.33110650777816775
55;0.6140896797180175;0.7370844674110413;0.5418652677536011;0.1359375;0.07912437438964844;0.2505545914173126;0.15007711946964264;0.7894795894622803;0.013281249557621777;0.3052444338798523
56;0.6203704917430878;0.7600524663925171;0.5585875445604325;0.12890625;0.08015811145305633;0.20207277536392212;0.11523191183805466;0.8267407774925232;0.012343750079162418;0.35377514362335205
57;0.6346774983406067;0.7124577832221984;0.5836956524848937;0.12162499904632568;0.0767271126806736;0.20870671272277833;0.11897423714399338;0.8564472198486328;0.008906250004656613;0.3569733381271362
58;0.6092035651206971;0.7044606113433838;0.5453673768043518;0.11459374904632569;0.07757204294204711;0.17729003429412843;0.09814798682928086;0.9305219888687134;0.008124999795109033;0.42551576495170595
59;0.5924969494342804;0.7159062266349793;0.5502571558952332;0.11396874994039535;0.07805920243263245;0.20057328939437866;0.11417904794216156;0.8295454978942871;0.011562500149011612;0.36021177768707274
60;0.579281075000763;0.6494117271900177;0.5474637877941132;0.10671874970197677;0.0841635125875473;0.23192546963691713;0.1353708803653717;0.8279561996459961;0.0109375;0.3408870041370392
61;0.593043509721756;0.6869260382652282;0.5409108996391296;0.09184374868869781;0.07788745403289794;0.18519553244113923;0.10430791676044464;0.8339309334754944;0.012187500018626451;0.39921016097068784
62;0.6194595384597779;0.7032051014900208;0.5718035936355591;0.10587500065565109;0.07709558814764023;0.23516374528408052;0.13811011165380477;0.7987003207206727;0.01343749975785613;0.3305256724357605
63;0.6095410490036011;0.7318276929855346;0.5480755126476288;0.09550000056624412;0.07337239056825638;0.19833605885505676;0.11152273863554;0.909971559047699;0.011250000260770322;0.41497368812561036
64;0.6352185225486755;0.7304433536529541;0.5852439498901367;0.0922500003874302;0.07523100525140762;0.17579072415828706;0.09725763648748398;0.9291797995567321;0.011093750037252903;0.4712067604064941
65;0.619868386387825;0.6892912459373474;0.5919292771816254;0.08606250062584878;0.07506193220615387;0.2650182545185089;0.16445740759372712;0.7219943881034852;0.016093749832361937;0.30102590322494505
66;0.5201517343521118;0.7085170495510101;0.45296953320503236;0.10365625128149986;0.08051325917243958;0.16299010217189788;0.08969425857067108;0.9336775302886963;0.012187499739229678;0.5012704133987427
67;0.6112817692756652;0.6977851033210755;0.5642603194713592;0.09906249910593033;0.07400782689452172;0.18825866281986237;0.10504697412252426;0.9100844740867615;0.012187500484287739;0.44792900085449217
68;0.5940029180049896;0.6984276747703553;0.5457985734939576;0.09434374913573265;0.07368867218494415;0.22061835825443268;0.1270119547843933;0.8391208648681641;0.013437500409781932;0.372253942489624
69;0.6043450951576232;0.7177784967422486;0.5362293863296509;0.08381249934434891;0.07378858596086502;0.17714671194553375;0.09846500307321548;0.8905937433242798;0.013281249813735485;0.4607312917709351
70;0.6573983240127563;0.7494832062721253;0.6057796454429627;0.07371874928474426;0.06901295602321625;0.1923718959093094;0.10838820487260818;0.856565797328949;0.011718749906867743;0.4307121515274048
71;0.6345565819740295;0.7396811699867248;0.5740343499183654;0.09646875068545341;0.0711386826634407;0.17992337346076964;0.10024315863847733;0.8863203644752502;0.011718750186264514;0.4669748187065125
72;0.6665500521659851;0.7605519819259644;0.6038393902778626;0.08168750017881393;0.070365249812603;0.17487314641475676;0.0968880146741867;0.9122749090194702;0.01203125026077032;0.49024027585983276
73;0.6387094068527222;0.7366293787956237;0.5865710866451264;0.07234375029802323;0.06871597975492477;0.1957940012216568;0.10991554856300353;0.8982622742652893;0.011874999757856131;0.44047977328300475
74;0.6398217654228211;0.7559286260604858;0.5779027891159058;0.0679062494635582;0.06875273793935775;0.18223865628242492;0.10158990174531937;0.8912593841552734;0.011562499590218068;0.4609695315361023
75;0.6480049872398377;0.7710288572311401;0.5795897126197815;0.07890624940395355;0.06609762966632843;0.17645132839679717;0.09829435795545578;0.8768854379653931;0.011874999664723874;0.468632709980011
76;0.6552766871452331;0.7401538252830505;0.6235404872894287;0.06300000071525574;0.07165227860212325;0.28779483437538145;0.17938918471336365;0.741764760017395;0.013281249813735485;0.29232303500175477
77;0.564613641500473;0.7263602912425995;0.4950043416023254;0.0788437506556511;0.07724367141723633;0.24578324258327483;0.14564476013183594;0.7900261998176574;0.009687499981373549;0.34625978469848634
78;0.5530982947349549;0.7211767339706421;0.4905598020553589;0.09146874904632568;0.07794679403305053;0.18848645091056823;0.10638787299394607;0.8308874845504761;0.009375000186264516;0.4307770013809204
79;0.6438920092582703;0.7520808410644532;0.5714851808547974;0.05615625001490116;0.0691814199090004;0.2087185114622116;0.11977945417165756;0.8207205533981323;0.009843750111758708;0.4016808569431305
80;0.6636453628540039;0.7736445903778076;0.5929714226722718;0.062187500298023224;0.06684405490756035;0.2241465389728546;0.13032569438219072;0.806617283821106;0.010781249962747097;0.3738169252872467
81;0.6392347717285156;0.7441871523857116;0.5786033606529236;0.08481250055134297;0.06621510773897171;0.2199912488460541;0.1257434070110321;0.882194209098816;0.010937499813735485;0.40773134827613833
82;0.6557741379737854;0.7629165744781494;0.5913298177719116;0.07928124934434891;0.0679102262854576;0.20676811337471007;0.11697271466255188;0.8959580898284912;0.009687499888241292;0.44426004886627196
83;0.66462939620018;0.7399452093243599;0.6161992931365967;0.06556249916553497;0.0662772485613823;0.27253841757774355;0.16445330977439881;0.8051788210868835;0.010625000298023223;0.3225736141204834
84;0.630222671031952;0.76106929063797;0.5506921482086181;0.061000000834465024;0.06691448464989662;0.20833877027034758;0.11833060085773468;0.871653926372528;0.009218749776482581;0.41821014881134033
85;0.6418698573112488;0.778664858341217;0.5649896550178528;0.07737499997019767;0.06283721148967743;0.19472329914569855;0.10917767137289047;0.9062477469444274;0.009843749925494194;0.46181652545928953
86;0.5802896881103515;0.6591610181331634;0.5883898305892944;0.057749999836087224;0.09326373487710952;0.2737896203994751;0.16724199652671815;0.7679979681968689;0.0054687501164153215;0.33630636930465696
87;0.36250539377331736;0.7816056895256043;0.26452870029956105;0.0618124994635582;0.09578563034534454;0.2543950885534286;0.15403715819120406;0.7680545091629029;0.007656249823048711;0.35800027251243594
88;0.594813060760498;0.7325351142883301;0.5084295439720153;0.04921874985098839;0.07522247225046158;0.2131979286670685;0.12282414138317108;0.8107537269592285;0.00874999975785613;0.38059436082839965
89;0.6405172502994537;0.7135410487651825;0.6064431029558182;0.046375000551342964;0.07138209134340286;0.2289186656475067;0.13381691873073578;0.796824836730957;0.009062499832361936;0.36040946245193484
90;0.6173181736469269;0.7109418189525605;0.5563509690761567;0.05525000050663948;0.06676866203546523;0.23812969624996186;0.13919634371995926;0.8294950485229492;0.008593749906867742;0.3614589929580688
91;0.6492507320642471;0.7415919613838196;0.590250951051712;0.052562500908970834;0.0675596335530281;0.23938045799732208;0.13983081728219987;0.8392970561981201;0.008281249832361937;0.36843461990356446
92;0.6696866512298584;0.7606600403785706;0.6060163784027099;0.057249999791383746;0.06437254756689072;0.21386944353580475;0.1223927304148674;0.8494890689849853;0.00921874986961484;0.39921608567237854
93;0.6776251459121704;0.7700912618637085;0.6119509911537171;0.0572187502682209;0.06277593165636063;0.18465252518653869;0.1031961351633072;0.8804508805274963;0.007968750037252902;0.4739769458770752
94;0.6826156520843506;0.7511683130264282;0.6493295621871948;0.0528437502682209;0.06693228840827942;0.2210634768009186;0.12711331248283386;0.8577029943466187;0.007968750037252902;0.41150187849998476
95;0.6502847671508789;0.7603780865669251;0.5767077231407165;0.06334375038743019;0.06202191486954689;0.22175780534744263;0.12736233323812485;0.8632058143615723;0.00812499998137355;0.3945271968841553
96;0.6677383756637574;0.7816200041770935;0.5984537863731384;0.049125000387430194;0.061317629367113116;0.20409874022006988;0.11530688554048538;0.8899592876434326;0.009218749962747097;0.45298614501953127
97;0.6838771677017212;0.794214198589325;0.6251761984825134;0.058906250558793546;0.06321584492921829;0.21435679793357848;0.1227553814649582;0.84486323595047;0.007343750074505806;0.41052794456481934
98;0.6575102400779724;0.7851683878898621;0.5836475324630738;0.06428125008940697;0.05971812754869461;0.2107252597808838;0.11974943578243255;0.8801421046257019;0.008906250260770321;0.43692865371704104
99;0.6750055861473083;0.753784236907959;0.6180928683280945;0.05159375034272671;0.06097961068153381;0.25183890759944916;0.14802777767181396;0.8462887048721314;0.007812499813735485;0.3702094078063965
