epoch;F1_score;Precision;Recall;acc;loss;val_F1_score;val_Precision;val_Recall;val_acc;val_loss
0;0.021792486534369264;0.036003777181560344;0.024921150935221126;0.002045454546301202;0.31257823705673216;3.560524419299327e-05;0.0024999999441206455;1.7930304238689132e-05;0.0003124999930150807;0.4562717378139496
1;0.0005000989423768425;0.023824657161127437;0.00025428682036528536;0.0015340909171341495;0.23720896325328134;1.7923073755810037e-05;0.02222222276031971;8.965152119344566e-06;0.0015625000232830644;0.4492548108100891
2;0.00011000698723364621;0.019559876146641644;5.5201395695224744e-05;0.0024147727315060115;0.21422436318614266;1.7929660316440277e-05;0.25;8.965152119344566e-06;0.0015625000232830644;0.41709479689598083
3;7.16213958433152e-05;0.03424190201542594;3.585172499614683e-05;0.0022159091260453515;0.19089863517067648;1.7929660316440277e-05;0.25;8.965152119344566e-06;0.005937499925494194;0.42741042375564575
4;nan;0.011934844336726449;1.546885409466499e-05;0.010170454116517;0.16064518283713947;nan;0.0;0.0;0.03125;0.39321234822273254
